Open Science for a better World
…
.panelset[

.panel[.panel-name[Codes]

```r
# there are three species: Chinstrap, Gentoo, Adelie
penguins %>% 
* filter(species == "Gentoo")
```
]

.panel[.panel-name[Output]

```
## # A tibble: 124 × 8
##    species island bill_length_mm bill_depth_mm
##    <fct>   <fct>           <dbl>         <dbl>
##  1 Gentoo  Biscoe           46.1          13.2
##  2 Gentoo  Biscoe           50            16.3
##  3 Gentoo  Biscoe           48.7          14.1
##  4 Gentoo  Biscoe           50            15.2
##  5 Gentoo  Biscoe           47.6          14.5
##  6 Gentoo  Biscoe           46.5          13.5
##  7 Gentoo  Biscoe           45.4          14.6
##  8 Gentoo  Biscoe           46.7          15.3
##  9 Gentoo  Biscoe           43.3          13.4
## 10 Gentoo  Biscoe           46.8          15.4
## # … with 114 more rows, and 4 more variables:
## #   flipper_length_mm <int>, body_mass_g <int>,
## #   sex <fct>, year <int>
```
…
.panelset[

.panel[.panel-name[Codes]

```r
penguins %>% 
  filter(bill_length_mm > 43) 
```
]

.panel[.panel-name[Output]

```
## # A tibble: 188 × 8
##    species island    bill_length_mm bill_depth_mm
##    <fct>   <fct>              <dbl>         <dbl>
##  1 Adelie  Torgersen           46            21.5
##  2 Adelie  Dream               44.1          19.7
##  3 Adelie  Torgersen           45.8          18.9
##  4 Adelie  Dream               43.2          18.5
##  5 Adelie  Biscoe              43.2          19  
##  6 Adelie  Biscoe              45.6          20.3
##  7 Adelie  Torgersen           44.1          18  
##  8 Adelie  Torgersen           43.1          19.2
##  9 Gentoo  Biscoe              46.1          13.2
## 10 Gentoo  Biscoe              50            16.3
## # … with 178 more rows, and 4 more variables:
## #   flipper_length_mm <int>, body_mass_g <int>,
## #   sex <fct>, year <int>
```
…
.panelset[

.panel[.panel-name[Codes]

```r
penguins %>% 
* select(species)
```
]

.panel[.panel-name[Output]

```
## # A tibble: 344 × 1
##    species
##    <fct>  
##  1 Adelie 
##  2 Adelie 
##  3 Adelie 
##  4 Adelie 
##  5 Adelie 
##  6 Adelie 
##  7 Adelie 
##  8 Adelie 
##  9 Adelie 
## 10 Adelie 
## # … with 334 more rows
```
…
.panelset[

.panel[.panel-name[Codes]

```r
penguins %>% 
  select(species : bill_depth_mm)
```
]

.panel[.panel-name[Output]

```
## # A tibble: 344 × 4
##    species island    bill_length_mm bill_depth_mm
##    <fct>   <fct>              <dbl>         <dbl>
##  1 Adelie  Torgersen           39.1          18.7
##  2 Adelie  Torgersen           39.5          17.4
##  3 Adelie  Torgersen           40.3          18  
##  4 Adelie  Torgersen           NA            NA  
##  5 Adelie  Torgersen           36.7          19.3
##  6 Adelie  Torgersen           39.3          20.6
##  7 Adelie  Torgersen           38.9          17.8
##  8 Adelie  Torgersen           39.2          19.6
##  9 Adelie  Torgersen           34.1          18.1
## 10 Adelie  Torgersen           42            20.2
## # … with 334 more rows
```
…
.panelset[

.panel[.panel-name[Codes]

```r
penguins %>% 
  select(4:8)
```
]

.panel[.panel-name[Output]

```
## # A tibble: 344 × 5
##    bill_depth_mm flipper_length_mm body_mass_g sex   
##            <dbl>             <int>       <int> <fct> 
##  1          18.7               181        3750 male  
##  2          17.4               186        3800 female
##  3          18                 195        3250 female
##  4          NA                  NA          NA <NA>  
##  5          19.3               193        3450 female
##  6          20.6               190        3650 male  
##  7          17.8               181        3625 female
##  8          19.6               195        4675 male  
##  9          18.1               193        3475 <NA>  
## 10          20.2               190        4250 <NA>  
## # … with 334 more rows, and 1 more variable:
## #   year <int>
```
…
.panelset[

.panel[.panel-name[Codes]

```r
penguins %>% 
  select(species, body_mass_g, year)
```
]

.panel[.panel-name[Output]

```
## # A tibble: 344 × 3
##    species body_mass_g  year
##    <fct>         <int> <int>
##  1 Adelie         3750  2007
##  2 Adelie         3800  2007
##  3 Adelie         3250  2007
##  4 Adelie           NA  2007
##  5 Adelie         3450  2007
##  6 Adelie         3650  2007
##  7 Adelie         3625  2007
##  8 Adelie         4675  2007
##  9 Adelie         3475  2007
## 10 Adelie         4250  2007
## # … with 334 more rows
```
…
.panelset[

.panel[.panel-name[Codes]

```r
penguins %>% 
  select(-c(species, body_mass_g, year))
```
]

.panel[.panel-name[Output]

```
## # A tibble: 344 × 5
##    island bill_length_mm bill_depth_mm flipper_length_…
##    <fct>           <dbl>         <dbl>            <int>
##  1 Torge…           39.1          18.7              181
##  2 Torge…           39.5          17.4              186
##  3 Torge…           40.3          18                195
##  4 Torge…           NA            NA                 NA
##  5 Torge…           36.7          19.3              193
##  6 Torge…           39.3          20.6              190
##  7 Torge…           38.9          17.8              181
##  8 Torge…           39.2          19.6              195
##  9 Torge…           34.1          18.1              193
## 10 Torge…           42            20.2              190
## # … with 334 more rows, and 1 more variable: sex <fct>
```
…
.panelset[

.panel[.panel-name[Codes]

```r
penguins %>% 
* mutate(body_mass_kg = body_mass_g / 1000)
```
]

.panel[.panel-name[Output]

```
## # A tibble: 344 × 9
##    species island    bill_length_mm bill_depth_mm
##    <fct>   <fct>              <dbl>         <dbl>
##  1 Adelie  Torgersen           39.1          18.7
##  2 Adelie  Torgersen           39.5          17.4
##  3 Adelie  Torgersen           40.3          18  
##  4 Adelie  Torgersen           NA            NA  
##  5 Adelie  Torgersen           36.7          19.3
##  6 Adelie  Torgersen           39.3          20.6
##  7 Adelie  Torgersen           38.9          17.8
##  8 Adelie  Torgersen           39.2          19.6
##  9 Adelie  Torgersen           34.1          18.1
## 10 Adelie  Torgersen           42            20.2
## # … with 334 more rows, and 5 more variables:
## #   flipper_length_mm <int>, body_mass_g <int>,
## #   sex <fct>, year <int>, body_mass_kg <dbl>
```
…
.panelset[

.panel[.panel-name[Codes]

```r
penguins %>% 
  select(body_mass_g) %>%
  mutate(body_mass_kg = body_mass_g / 1000)
```
]

.panel[.panel-name[Output]

```
## # A tibble: 344 × 2
##    body_mass_g body_mass_kg
##          <int>        <dbl>
##  1        3750         3.75
##  2        3800         3.8 
##  3        3250         3.25
##  4          NA        NA   
##  5        3450         3.45
##  6        3650         3.65
##  7        3625         3.62
##  8        4675         4.68
##  9        3475         3.48
## 10        4250         4.25
## # … with 334 more rows
```
…
.panelset[

.panel[.panel-name[Codes]

```r
penguins %>% 
  mutate(body_mass_kg = body_mass_g / 1000, 
         bill = bill_length_mm * bill_depth_mm)
```
]

.panel[.panel-name[Output]

```
## # A tibble: 344 × 10
##    species island    bill_length_mm bill_depth_mm
##    <fct>   <fct>              <dbl>         <dbl>
##  1 Adelie  Torgersen           39.1          18.7
##  2 Adelie  Torgersen           39.5          17.4
##  3 Adelie  Torgersen           40.3          18  
##  4 Adelie  Torgersen           NA            NA  
##  5 Adelie  Torgersen           36.7          19.3
##  6 Adelie  Torgersen           39.3          20.6
##  7 Adelie  Torgersen           38.9          17.8
##  8 Adelie  Torgersen           39.2          19.6
##  9 Adelie  Torgersen           34.1          18.1
## 10 Adelie  Torgersen           42            20.2
## # … with 334 more rows, and 6 more variables:
## #   flipper_length_mm <int>, body_mass_g <int>,
## #   sex <fct>, year <int>, body_mass_kg <dbl>,
## #   bill <dbl>
```
…
.panel[.panel-name[Codes]

```r
penguins %>% 
  mutate(body_mass_kg = body_mass_g / 1000,
         bill = bill_length_mm * bill_depth_mm) %>% 
  select(body_mass_kg,
         bill)
```
]

.panel[.panel-name[Output]

```
## # A tibble: 344 × 2
##    body_mass_kg  bill
##           <dbl> <dbl>
##  1         3.75  731.
##  2         3.8   687.
##  3         3.25  725.
##  4        NA      NA 
##  5         3.45  708.
##  6         3.65  810.
##  7         3.62  692.
##  8         4.68  768.
##  9         3.48  617.
## 10         4.25  848.
## # … with 334 more rows
```
…
.panelset[

.panel[.panel-name[Codes]

```r
penguins %>% 
* arrange(bill_length_mm)
```
]

.panel[.panel-name[Output]

```
## # A tibble: 344 × 8
##    species island    bill_length_mm bill_depth_mm
##    <fct>   <fct>              <dbl>         <dbl>
##  1 Adelie  Dream               32.1          15.5
##  2 Adelie  Dream               33.1          16.1
##  3 Adelie  Torgersen           33.5          19  
##  4 Adelie  Dream               34            17.1
##  5 Adelie  Torgersen           34.1          18.1
##  6 Adelie  Torgersen           34.4          18.4
##  7 Adelie  Biscoe              34.5          18.1
##  8 Adelie  Torgersen           34.6          21.1
##  9 Adelie  Torgersen           34.6          17.2
## 10 Adelie  Biscoe              35            17.9
## # … with 334 more rows, and 4 more variables:
## #   flipper_length_mm <int>, body_mass_g <int>,
## #   sex <fct>, year <int>
```
…
.panelset[

.panel[.panel-name[Codes]

```r
penguins %>% 
* arrange(desc(bill_length_mm))
```
]

.panel[.panel-name[Output]

```
## # A tibble: 344 × 8
##    species   island bill_length_mm bill_depth_mm
##    <fct>     <fct>           <dbl>         <dbl>
##  1 Gentoo    Biscoe           59.6          17  
##  2 Chinstrap Dream            58            17.8
##  3 Gentoo    Biscoe           55.9          17  
##  4 Chinstrap Dream            55.8          19.8
##  5 Gentoo    Biscoe           55.1          16  
##  6 Gentoo    Biscoe           54.3          15.7
##  7 Chinstrap Dream            54.2          20.8
##  8 Chinstrap Dream            53.5          19.9
##  9 Gentoo    Biscoe           53.4          15.8
## 10 Chinstrap Dream            52.8          20  
## # … with 334 more rows, and 4 more variables:
## #   flipper_length_mm <int>, body_mass_g <int>,
## #   sex <fct>, year <int>
```
…
.panelset[

.panel[.panel-name[Codes]

```r
penguins %>% 
  arrange(species)
```
]

.panel[.panel-name[Output]

```
## # A tibble: 344 × 8
##    species island    bill_length_mm bill_depth_mm
##    <fct>   <fct>              <dbl>         <dbl>
##  1 Adelie  Torgersen           39.1          18.7
##  2 Adelie  Torgersen           39.5          17.4
##  3 Adelie  Torgersen           40.3          18  
##  4 Adelie  Torgersen           NA            NA  
##  5 Adelie  Torgersen           36.7          19.3
##  6 Adelie  Torgersen           39.3          20.6
##  7 Adelie  Torgersen           38.9          17.8
##  8 Adelie  Torgersen           39.2          19.6
##  9 Adelie  Torgersen           34.1          18.1
## 10 Adelie  Torgersen           42            20.2
## # … with 334 more rows, and 4 more variables:
## #   flipper_length_mm <int>, body_mass_g <int>,
## #   sex <fct>, year <int>
```
…
